<?xml version="1.0" encoding="utf-8"?>
<!-- Generator: Adobe Illustrator 23.0.2, SVG Export Plug-In . SVG Version: 6.00 Build 0)  -->
<svg version="1.1" id="Layer_1" xmlns="http://www.w3.org/2000/svg" xmlns:xlink="http://www.w3.org/1999/xlink" x="0px" y="0px"
	 viewBox="0 0 180 180" style="enable-background:new 0 0 180 180;" xml:space="preserve">
<style type="text/css">
	.st0{fill:#FFFFFF;}
	.st1{fill:#030F2B;}
</style>
<path class="st0" d="M90,180L90,180c-49.71,0-90-40.29-90-90v0C0,40.29,40.29,0,90,0h0c49.71,0,90,40.29,90,90v0
	C180,139.71,139.71,180,90,180z"/>
<g>
	<g>
		<path class="st1" d="M87.08,101.94c-0.08,0-0.17-0.02-0.24-0.06c-0.16-0.09-0.26-0.26-0.26-0.44v-4.21h-9.34
			c-0.28,0-0.5-0.22-0.5-0.5V86.9c0-0.28,0.22-0.5,0.5-0.5h9.34v-4.21c0-0.18,0.1-0.35,0.26-0.44c0.16-0.09,0.35-0.08,0.51,0.01
			l15.68,9.63c0.15,0.09,0.24,0.25,0.24,0.43s-0.09,0.33-0.24,0.43l-15.68,9.63C87.26,101.92,87.17,101.94,87.08,101.94z
			 M77.74,96.23h9.34c0.28,0,0.5,0.22,0.5,0.5v3.82l14.23-8.74l-14.23-8.74v3.82c0,0.28-0.22,0.5-0.5,0.5h-9.34V96.23z"/>
		<path class="st1" d="M90,122.18c-0.28,0-0.5-0.22-0.5-0.5v-1c0-0.28,0.22-0.5,0.5-0.5s0.5,0.22,0.5,0.5v1
			C90.5,121.96,90.28,122.18,90,122.18z M90,119.18c-0.28,0-0.5-0.22-0.5-0.5v-1c0-0.28,0.22-0.5,0.5-0.5s0.5,0.22,0.5,0.5v1
			C90.5,118.96,90.28,119.18,90,119.18z M90,116.18c-0.28,0-0.5-0.22-0.5-0.5v-1c0-0.28,0.22-0.5,0.5-0.5s0.5,0.22,0.5,0.5v1
			C90.5,115.96,90.28,116.18,90,116.18z M90,113.18c-0.28,0-0.5-0.22-0.5-0.5v-1c0-0.28,0.22-0.5,0.5-0.5s0.5,0.22,0.5,0.5v1
			C90.5,112.96,90.28,113.18,90,113.18z M90,110.18c-0.28,0-0.5-0.22-0.5-0.5v-1c0-0.28,0.22-0.5,0.5-0.5s0.5,0.22,0.5,0.5v1
			C90.5,109.96,90.28,110.18,90,110.18z M90,107.18c-0.28,0-0.5-0.22-0.5-0.5v-1c0-0.28,0.22-0.5,0.5-0.5s0.5,0.22,0.5,0.5v1
			C90.5,106.96,90.28,107.18,90,107.18z M90,104.18c-0.28,0-0.5-0.22-0.5-0.5v-1c0-0.28,0.22-0.5,0.5-0.5s0.5,0.22,0.5,0.5v1
			C90.5,103.96,90.28,104.18,90,104.18z M90,101.18c-0.28,0-0.5-0.22-0.5-0.5v-1c0-0.28,0.22-0.5,0.5-0.5s0.5,0.22,0.5,0.5v1
			C90.5,100.96,90.28,101.18,90,101.18z"/>
		<path class="st1" d="M90,83.29c-0.28,0-0.5-0.22-0.5-0.5v-1c0-0.28,0.22-0.5,0.5-0.5s0.5,0.22,0.5,0.5v1
			C90.5,83.07,90.28,83.29,90,83.29z M90,80.29c-0.28,0-0.5-0.22-0.5-0.5v-1c0-0.28,0.22-0.5,0.5-0.5s0.5,0.22,0.5,0.5v1
			C90.5,80.07,90.28,80.29,90,80.29z M90,77.29c-0.28,0-0.5-0.22-0.5-0.5v-1c0-0.28,0.22-0.5,0.5-0.5s0.5,0.22,0.5,0.5v1
			C90.5,77.07,90.28,77.29,90,77.29z M90,74.29c-0.28,0-0.5-0.22-0.5-0.5v-1c0-0.28,0.22-0.5,0.5-0.5s0.5,0.22,0.5,0.5v1
			C90.5,74.07,90.28,74.29,90,74.29z M90,71.29c-0.28,0-0.5-0.22-0.5-0.5v-1c0-0.28,0.22-0.5,0.5-0.5s0.5,0.22,0.5,0.5v1
			C90.5,71.07,90.28,71.29,90,71.29z M90,68.29c-0.28,0-0.5-0.22-0.5-0.5v-1c0-0.28,0.22-0.5,0.5-0.5s0.5,0.22,0.5,0.5v1
			C90.5,68.07,90.28,68.29,90,68.29z M90,65.29c-0.28,0-0.5-0.22-0.5-0.5v-1c0-0.28,0.22-0.5,0.5-0.5s0.5,0.22,0.5,0.5v1
			C90.5,65.07,90.28,65.29,90,65.29z M90,62.29c-0.28,0-0.5-0.22-0.5-0.5v-1c0-0.28,0.22-0.5,0.5-0.5s0.5,0.22,0.5,0.5v1
			C90.5,62.07,90.28,62.29,90,62.29z"/>
	</g>
	<g>
		<path class="st1" d="M19.8,122.9c18.63-0.59,37-2.21,55.67-2.31c-1.36-13.38-5.9-22.63-18.61-28.08
			c4.05-4.15,6.31-8.87,5.32-14.96c-1.58-9.73-8.61-17.36-19.02-16.81c-10.42,0.55-17.39,8.39-17.36,18.78
			c0.02,6.5,4.99,11.15,10.25,14.35C25.26,100.53,20.2,110.3,19.8,122.9z M54.87,73.62c1.25,0,2.27,1.02,2.27,2.27
			c0,1.25-1.02,2.27-2.27,2.27s-2.27-1.02-2.27-2.27C52.6,74.64,53.62,73.62,54.87,73.62z M50.56,82.7
			c-0.66,1.8-1.86,3.03-3.26,3.03c-1.4,0-2.6-1.22-3.26-3.03H50.56z M34.44,77.4c0-1.25,1.02-2.27,2.27-2.27s2.27,1.02,2.27,2.27
			c0,1.25-1.02,2.27-2.27,2.27S34.44,78.66,34.44,77.4z"/>
		<path class="st1" d="M54.67,67.26c-0.21,0-0.4-0.13-0.47-0.34c-0.09-0.26,0.05-0.55,0.31-0.64c1.71-0.59,3.33-1.41,4.81-2.44
			c0.82-0.57,1.83-1.37,2.39-2.45c0.44-0.85,0.59-2.11-0.04-3c-0.37-0.51-1-0.8-1.77-0.8c-0.74,0.01-1.39,0.33-1.74,0.86
			c-0.15,0.23-0.47,0.29-0.69,0.14c-0.23-0.15-0.29-0.46-0.14-0.69c0.54-0.79,1.49-1.28,2.55-1.3c1.03,0.01,2.03,0.44,2.59,1.21
			c0.78,1.08,0.83,2.67,0.12,4.04c-0.66,1.28-1.79,2.18-2.71,2.81c-1.56,1.08-3.26,1.95-5.06,2.57
			C54.78,67.25,54.73,67.26,54.67,67.26z"/>
	</g>
	<g>
		<path class="st1" d="M104.54,122.9c18.63-0.59,37-2.21,55.67-2.31c-1.36-13.38-5.9-22.63-18.61-28.08
			c4.05-4.15,6.31-8.87,5.32-14.96c-1.58-9.73-8.61-17.36-19.02-16.81c-10.42,0.55-17.39,8.39-17.36,18.78
			c0.02,6.5,4.99,11.15,10.25,14.35C110,100.53,104.94,110.3,104.54,122.9z M139.31,74.98c2.15-0.42,4.27,0.39,5.73,1.96
			c-1.63-0.27-3.45-0.26-5.33,0.11c-1.88,0.37-3.57,1.04-4.98,1.9C135.5,76.95,137.17,75.4,139.31,74.98z M121.44,76.47
			c2.19,0,4.11,1.2,5.25,3.03c-1.55-0.58-3.34-0.92-5.25-0.92s-3.7,0.34-5.25,0.92C117.33,77.67,119.26,76.47,121.44,76.47z
			 M117.15,82.08c0.09-0.35,3.14,6.88,15.52,5.92c6.51-0.5,10.67-6.56,11.56-8.28c0.06-0.15,0.12-0.29,0.18-0.44
			c0.01,0.04-0.05,0.2-0.18,0.44c-2.39,6.01-6.9,10.24-12.44,10.81C126.12,91.11,120.72,87.72,117.15,82.08z"/>
		<path class="st1" d="M139.41,67.26c-0.21,0-0.4-0.13-0.47-0.34c-0.09-0.26,0.05-0.55,0.31-0.64c1.71-0.59,3.33-1.41,4.81-2.44
			c0.82-0.57,1.83-1.37,2.39-2.45c0.44-0.85,0.59-2.11-0.04-3c-0.37-0.51-1.01-0.8-1.77-0.8c-0.74,0.01-1.39,0.33-1.74,0.86
			c-0.15,0.23-0.47,0.29-0.69,0.14c-0.23-0.15-0.29-0.46-0.14-0.69c0.54-0.79,1.49-1.28,2.55-1.3c1.05,0.01,2.03,0.44,2.59,1.21
			c0.78,1.08,0.83,2.67,0.12,4.04c-0.66,1.28-1.79,2.18-2.71,2.81c-1.56,1.08-3.26,1.95-5.06,2.57
			C139.52,67.25,139.47,67.26,139.41,67.26z"/>
		<circle class="st1" cx="139.61" cy="75.89" r="1.51"/>
		<circle class="st1" cx="121.45" cy="77.4" r="1.51"/>
	</g>
</g>
</svg>
